Section 1 Working with lists and iteration | 04_working_with_lists.utf8
…
##       cyl      data 
## "numeric"    "list"

mtcars is now a nested data frame. The class of each of its columns is respectively, a numeric (number of cylinders) and a list (the data of all cars with as many cylinders as in the corresponding row).

While nest can be used without first grouping the tibble, it’s just much easier to group first.

1.1.2 Unnesting data

A nested tibble can be converted back into the original, or into a processed form, using tidyr::unnest. The original groups are retained.

# use unnest to recover the original data frame
unnest(nested_cars, cols = "data")

## # A tibble: 32 x 12
## # Groups:   cyl [3]
##      cyl car_name      mpg  disp    hp  drat    wt  qsec    vs    am  gear  carb
##    <dbl> <chr>       <dbl> <dbl> <dbl> <dbl> <dbl> <dbl> <dbl> <dbl> <dbl> <dbl>
##  1     6 Mazda RX4    21    160    110  3.9   2.62  16.5     0     1     4     4
##  2     6 Mazda RX4 …  21    160    110  3.9   2.88  17.0     0     1     4     4
##  3     6 Hornet 4 D…  21.4  258    110  3.08  3.22  19.4     1     0     3     1
##  4     6 Valiant      18.1  225    105  2.76  3.46  20.2     1     0     3     1
##  5     6 Merc 280     19.2  168.   123  3.92  3.44  18.3     1     0     4     4
##  6     6 Merc 280C    17.8  168.   123  3.92  3.44  18.9     1     0     4     4
##  7     6 Ferrari Di…  19.7  145    175  3.62  2.77  15.5     0     1     5     6
##  8     4 Datsun 710   22.8  108     93  3.85  2.32  18.6     1     1     4     1
##  9     4 Merc 240D    24.4  147.    62  3.69  3.19  20       1     0     4     2
## 10     4 Merc 230     22.8  141.    95  3.92  3.15  22.9     1     0     4     2
## # … with 22 more rows
…
