Section 4 Data manipulation with dplyr | TRES Tidyverse Tutorial
…
4.1 Introduction

Reminders from last weeks: pipe operator, tidy tables, ggplot

Why dplyr ? dplyr vs base R

4.2 Example data of the day

Through this tutorial, we will be using mammal trait data from the Phylacine database. The dataset contains information on mass, diet, life habit, etc, for more than all living species of mammals. Let’s have a look.

phylacine <- readr::read_csv("data/phylacine_traits.csv")
phylacine

## # A tibble: 5,831 x 24
##    Binomial.1.2 Order.1.2 Family.1.2 Genus.1.2 Species.1.2 Terrestrial Marine
##    <chr>        <chr>     <chr>      <chr>     <chr>             <dbl>  <dbl>
##  1 Abditomys_l… Rodentia  Muridae    Abditomys latidens              1      0
##  2 Abeomelomys… Rodentia  Muridae    Abeomelo… sevia                 1      0
##  3 Abrawayaomy… Rodentia  Cricetidae Abrawaya… ruschii               1      0
##  4 Abrocoma_be… Rodentia  Abrocomid… Abrocoma  bennettii             1      0
##  5 Abrocoma_bo… Rodentia  Abrocomid… Abrocoma  boliviensis           1      0
##  6 Abrocoma_bu… Rodentia  Abrocomid… Abrocoma  budini                1      0
##  7 Abrocoma_ci… Rodentia  Abrocomid… Abrocoma  cinerea               1      0
##  8 Abrocoma_fa… Rodentia  Abrocomid… Abrocoma  famatina              1      0
##  9 Abrocoma_sh… Rodentia  Abrocomid… Abrocoma  shistacea             1      0
## 10 Abrocoma_us… Rodentia  Abrocomid… Abrocoma  uspallata             1      0
## # … with 5,821 more rows, and 17 more variables: Freshwater <dbl>,
## #   Aerial <dbl>, Life.Habit.Method <chr>, Life.Habit.Source <chr>,
## #   Mass.g <dbl>, Mass.Method <chr>, Mass.Source <chr>, Mass.Comparison <chr>,
## #   Mass.Comparison.Source <chr>, Island.Endemicity <chr>,
## #   IUCN.Status.1.2 <chr>, Added.IUCN.Status.1.2 <chr>, Diet.Plant <dbl>,
## #   Diet.Vertebrate <dbl>, Diet.Invertebrate <dbl>, Diet.Method <chr>,
## #   Diet.Source <chr>
…
To extract a set of variables (i.e. columns), use the conveniently-named select().

phylacine_subset <- phylacine %>% 
  dplyr::select(
    binomial, 
    order, 
    terrestrial, 
    marine, 
    freshwater, 
    aerial
  )
phylacine_subset

## # A tibble: 5,831 x 6
##    binomial             order    terrestrial marine freshwater aerial
##    <chr>                <chr>          <dbl>  <dbl>      <dbl>  <dbl>
##  1 Abditomys_latidens   Rodentia           1      0          0      0
##  2 Abeomelomys_sevia    Rodentia           1      0          0      0
##  3 Abrawayaomys_ruschii Rodentia           1      0          0      0
##  4 Abrocoma_bennettii   Rodentia           1      0          0      0
##  5 Abrocoma_boliviensis Rodentia           1      0          0      0
##  6 Abrocoma_budini      Rodentia           1      0          0      0
##  7 Abrocoma_cinerea     Rodentia           1      0          0      0
##  8 Abrocoma_famatina    Rodentia           1      0          0      0
##  9 Abrocoma_shistacea   Rodentia           1      0          0      0
## 10 Abrocoma_uspallata   Rodentia           1      0          0      0
## # … with 5,821 more rows

# Single variable
phylacine %>% dplyr::select(family)

## # A tibble: 5,831 x 1
##    family     
##    <chr>      
##  1 Muridae    
##  2 Muridae    
##  3 Cricetidae 
##  4 Abrocomidae
##  5 Abrocomidae
##  6 Abrocomidae
##  7 Abrocomidae
##  8 Abrocomidae
##  9 Abrocomidae
## 10 Abrocomidae
## # … with 5,821 more rows

# A set of variables
phylacine %>% dplyr::select(genus, species, mass_g)

## # A tibble: 5,831 x 3
##    genus        species     mass_g
##    <chr>        <chr>        <dbl>
##  1 Abditomys    latidens      269 
##  2 Abeomelomys  sevia          52 
##  3 Abrawayaomys ruschii        63 
##  4 Abrocoma     bennettii     250 
##  5 Abrocoma     boliviensis   158 
##  6 Abrocoma     budini        361.
##  7 Abrocoma     cinerea       250 
##  8 Abrocoma     famatina      233.
##  9 Abrocoma     shistacea     276.
## 10 Abrocoma     uspallata     246.
## # … with 5,821 more rows

# A range of variables
phylacine %>% dplyr::select(family:terrestrial)

## # A tibble: 5,831 x 4
##    family      genus        species     terrestrial
##    <chr>       <chr>        <chr>             <dbl>
##  1 Muridae     Abditomys    latidens              1
##  2 Muridae     Abeomelomys  sevia                 1
##  3 Cricetidae  Abrawayaomys ruschii               1
##  4 Abrocomidae Abrocoma     bennettii             1
##  5 Abrocomidae Abrocoma     boliviensis           1
##  6 Abrocomidae Abrocoma     budini                1
##  7 Abrocomidae Abrocoma     cinerea               1
##  8 Abrocomidae Abrocoma     famatina              1
##  9 Abrocomidae Abrocoma     shistacea             1
## 10 Abrocomidae Abrocoma     uspallata             1
## # … with 5,821 more rows

select() can also exclude variables:

phylacine %>% dplyr::select(-binomial)

## # A tibble: 5,831 x 23
##    order family genus species terrestrial marine freshwater aerial
##    <chr> <chr>  <chr> <chr>         <dbl>  <dbl>      <dbl>  <dbl>
##  1 Rode… Murid… Abdi… latide…           1      0          0      0
##  2 Rode… Murid… Abeo… sevia             1      0          0      0
##  3 Rode… Crice… Abra… ruschii           1      0          0      0
##  4 Rode… Abroc… Abro… bennet…           1      0          0      0
##  5 Rode… Abroc… Abro… bolivi…           1      0          0      0
##  6 Rode… Abroc… Abro… budini            1      0          0      0
##  7 Rode… Abroc… Abro… cinerea           1      0          0      0
##  8 Rode… Abroc… Abro… famati…           1      0          0      0
##  9 Rode… Abroc… Abro… shista…           1      0          0      0
## 10 Rode… Abroc… Abro… uspall…           1      0          0      0
## # … with 5,821 more rows, and 15 more variables: life_habit_method <chr>,
## #   life_habit_source <chr>, mass_g <dbl>, mass_method <chr>,
## #   mass_source <chr>, mass_comparison <chr>, mass_comparison_source <chr>,
## #   island_endemicity <chr>, iucn_status <chr>, added_iucn_status <chr>,
## #   diet_plant <dbl>, diet_vertebrate <dbl>, diet_invertebrate <dbl>,
## #   diet_method <chr>, diet_source <chr>

phylacine %>% dplyr::select(-(binomial:species))

## # A tibble: 5,831 x 19
##    terrestrial marine freshwater aerial life_habit_meth… life_habit_sour… mass_g
##          <dbl>  <dbl>      <dbl>  <dbl> <chr>            <chr>             <dbl>
##  1           1      0          0      0 Reported         IUCN. 2016. IUC…   269 
##  2           1      0          0      0 Reported         IUCN. 2016. IUC…    52 
##  3           1      0          0      0 Reported         IUCN. 2016. IUC…    63 
##  4           1      0          0      0 Reported         IUCN. 2016. IUC…   250 
##  5           1      0          0      0 Reported         IUCN. 2016. IUC…   158 
##  6           1      0          0      0 Reported         IUCN. 2016. IUC…   361.
##  7           1      0          0      0 Reported         IUCN. 2016. IUC…   250 
##  8           1      0          0      0 Reported         IUCN. 2016. IUC…   233.
##  9           1      0          0      0 Reported         IUCN. 2016. IUC…   276.
## 10           1      0          0      0 Reported         IUCN. 2016. IUC…   246.
## # … with 5,821 more rows, and 12 more variables: mass_method <chr>,
## #   mass_source <chr>, mass_comparison <chr>, mass_comparison_source <chr>,
## #   island_endemicity <chr>, iucn_status <chr>, added_iucn_status <chr>,
## #   diet_plant <dbl>, diet_vertebrate <dbl>, diet_invertebrate <dbl>,
## #   diet_method <chr>, diet_source <chr>

select() and rename() are pretty similar, and in fact, select() can also rename variables along the way:

phylacine %>% dplyr::select("fam" = family)

## # A tibble: 5,831 x 1
##    fam        
##    <chr>      
##  1 Muridae    
##  2 Muridae    
##  3 Cricetidae 
##  4 Abrocomidae
##  5 Abrocomidae
##  6 Abrocomidae
##  7 Abrocomidae
##  8 Abrocomidae
##  9 Abrocomidae
## 10 Abrocomidae
## # … with 5,821 more rows

And you can mix all of that at once:

phylacine %>% dplyr::select(
  "fam" = family,
  genus:freshwater,
  -terrestrial
)

## # A tibble: 5,831 x 5
##    fam         genus        species     marine freshwater
##    <chr>       <chr>        <chr>        <dbl>      <dbl>
##  1 Muridae     Abditomys    latidens         0          0
##  2 Muridae     Abeomelomys  sevia            0          0
##  3 Cricetidae  Abrawayaomys ruschii          0          0
##  4 Abrocomidae Abrocoma     bennettii        0          0
##  5 Abrocomidae Abrocoma     boliviensis      0          0
##  6 Abrocomidae Abrocoma     budini           0          0
##  7 Abrocomidae Abrocoma     cinerea          0          0
##  8 Abrocomidae Abrocoma     famatina         0          0
##  9 Abrocomidae Abrocoma     shistacea        0          0
## 10 Abrocomidae Abrocoma     uspallata        0          0
## # … with 5,821 more rows

4.4 Select observations with filter()

Conditional selection of observations is performed through filter(). This i sarguably the most useful function in the entire package. The syntax uses conditions involving the variables, just as you would use for if statements or while loops.

For example, I might want to extract mammals that are above a certain mass:

# megafauna
phylacine %>% 
  dplyr::filter(mass_g > 1e5) # 100 kg

## # A tibble: 302 x 24
##    binomial order family genus species terrestrial marine freshwater aerial
##    <chr>    <chr> <chr>  <chr> <chr>         <dbl>  <dbl>      <dbl>  <dbl>
##  1 Ailurop… Carn… Ursid… Ailu… melano…           1      0          0      0
##  2 Alcelap… Ceta… Bovid… Alce… busela…           1      0          0      0
##  3 Alces_a… Ceta… Cervi… Alces alces             1      0          0      0
##  4 Archaeo… Prim… Palae… Arch… fontoy…           1      0          0      0
##  5 Arctoce… Carn… Otari… Arct… forste…           1      1          0      0
##  6 Arctoce… Carn… Otari… Arct… pusill…           1      1          0      0
##  7 Arctoce… Carn… Otari… Arct… townse…           1      1          0      0
##  8 Arctodu… Carn… Ursid… Arct… simus             1      0          0      0
##  9 Arctoth… Carn… Ursid… Arct… tarije…           1      0          0      0
## 10 Babyrou… Ceta… Suidae Baby… togean…           1      0          1      0
## # … with 292 more rows, and 15 more variables: life_habit_method <chr>,
## #   life_habit_source <chr>, mass_g <dbl>, mass_method <chr>,
## #   mass_source <chr>, mass_comparison <chr>, mass_comparison_source <chr>,
## #   island_endemicity <chr>, iucn_status <chr>, added_iucn_status <chr>,
## #   diet_plant <dbl>, diet_vertebrate <dbl>, diet_invertebrate <dbl>,
## #   diet_method <chr>, diet_source <chr>

# living megafauna
phylacine %>% 
  dplyr::filter(mass_g > 1e5, iucn_status != "EP")

## # A tibble: 178 x 24
##    binomial order family genus species terrestrial marine freshwater aerial
##    <chr>    <chr> <chr>  <chr> <chr>         <dbl>  <dbl>      <dbl>  <dbl>
##  1 Ailurop… Carn… Ursid… Ailu… melano…           1      0          0      0
##  2 Alcelap… Ceta… Bovid… Alce… busela…           1      0          0      0
##  3 Alces_a… Ceta… Cervi… Alces alces             1      0          0      0
##  4 Arctoce… Carn… Otari… Arct… forste…           1      1          0      0
##  5 Arctoce… Carn… Otari… Arct… pusill…           1      1          0      0
##  6 Arctoce… Carn… Otari… Arct… townse…           1      1          0      0
##  7 Babyrou… Ceta… Suidae Baby… togean…           1      0          1      0
##  8 Balaena… Ceta… Balae… Bala… mystic…           0      1          0      0
##  9 Balaeno… Ceta… Balae… Bala… acutor…           0      1          0      0
## 10 Balaeno… Ceta… Balae… Bala… bonaer…           0      1          0      0
## # … with 168 more rows, and 15 more variables: life_habit_method <chr>,
## #   life_habit_source <chr>, mass_g <dbl>, mass_method <chr>,
## #   mass_source <chr>, mass_comparison <chr>, mass_comparison_source <chr>,
## #   island_endemicity <chr>, iucn_status <chr>, added_iucn_status <chr>,
## #   diet_plant <dbl>, diet_vertebrate <dbl>, diet_invertebrate <dbl>,
## #   diet_method <chr>, diet_source <chr>
…
Tip: dplyr introduces the useful function between() that does exactly what the name implies

between(1:5, 2, 4)

## [1] FALSE  TRUE  TRUE  TRUE FALSE

# Mesofauna
phylacine %>% dplyr::filter(mass_g > 1e3, mass_g < 1e5) # base

## # A tibble: 1,126 x 24
##    binomial order family genus species terrestrial marine freshwater aerial
##    <chr>    <chr> <chr>  <chr> <chr>         <dbl>  <dbl>      <dbl>  <dbl>
##  1 Acerodo… Chir… Ptero… Acer… jubatus           0      0          0      1
##  2 Acinony… Carn… Felid… Acin… jubatus           1      0          0      0
##  3 Acratoc… Pilo… Megal… Acra… odontr…           1      0          0      0
##  4 Acratoc… Pilo… Megal… Acra… ye                1      0          0      0
##  5 Addax_n… Ceta… Bovid… Addax nasoma…           1      0          0      0
##  6 Aepycer… Ceta… Bovid… Aepy… melamp…           1      0          0      0
##  7 Aepypry… Dipr… Potor… Aepy… rufesc…           1      0          0      0
##  8 Aeromys… Rode… Sciur… Aero… tephro…           1      0          0      0
##  9 Aeromys… Rode… Sciur… Aero… thomasi           1      0          0      0
## 10 Agalmac… Ceta… Cervi… Agal… blicki            1      0          0      0
## # … with 1,116 more rows, and 15 more variables: life_habit_method <chr>,
## #   life_habit_source <chr>, mass_g <dbl>, mass_method <chr>,
## #   mass_source <chr>, mass_comparison <chr>, mass_comparison_source <chr>,
## #   island_endemicity <chr>, iucn_status <chr>, added_iucn_status <chr>,
## #   diet_plant <dbl>, diet_vertebrate <dbl>, diet_invertebrate <dbl>,
## #   diet_method <chr>, diet_source <chr>

phylacine %>% dplyr::filter(mass_g %>% between(1e3, 1e5)) # dplyr

## # A tibble: 1,148 x 24
##    binomial order family genus species terrestrial marine freshwater aerial
##    <chr>    <chr> <chr>  <chr> <chr>         <dbl>  <dbl>      <dbl>  <dbl>
##  1 Acerodo… Chir… Ptero… Acer… jubatus           0      0          0      1
##  2 Acinony… Carn… Felid… Acin… jubatus           1      0          0      0
##  3 Acratoc… Pilo… Megal… Acra… odontr…           1      0          0      0
##  4 Acratoc… Pilo… Megal… Acra… ye                1      0          0      0
##  5 Addax_n… Ceta… Bovid… Addax nasoma…           1      0          0      0
##  6 Aepycer… Ceta… Bovid… Aepy… melamp…           1      0          0      0
##  7 Aepypry… Dipr… Potor… Aepy… rufesc…           1      0          0      0
##  8 Aeromys… Rode… Sciur… Aero… tephro…           1      0          0      0
##  9 Aeromys… Rode… Sciur… Aero… thomasi           1      0          0      0
## 10 Agalmac… Ceta… Cervi… Agal… blicki            1      0          0      0
## # … with 1,138 more rows, and 15 more variables: life_habit_method <chr>,
## #   life_habit_source <chr>, mass_g <dbl>, mass_method <chr>,
## #   mass_source <chr>, mass_comparison <chr>, mass_comparison_source <chr>,
## #   island_endemicity <chr>, iucn_status <chr>, added_iucn_status <chr>,
## #   diet_plant <dbl>, diet_vertebrate <dbl>, diet_invertebrate <dbl>,
## #   diet_method <chr>, diet_source <chr>
…
You may also want the row number to be included as a variable, to be used as part of some condition or calculation. tibble is there for you:

phylacine %>% tibble::rownames_to_column()

## # A tibble: 5,831 x 25
##    rowname binomial order family genus species terrestrial marine freshwater
##    <chr>   <chr>    <chr> <chr>  <chr> <chr>         <dbl>  <dbl>      <dbl>
##  1 1       Abditom… Rode… Murid… Abdi… latide…           1      0          0
##  2 2       Abeomel… Rode… Murid… Abeo… sevia             1      0          0
##  3 3       Abraway… Rode… Crice… Abra… ruschii           1      0          0
##  4 4       Abrocom… Rode… Abroc… Abro… bennet…           1      0          0
##  5 5       Abrocom… Rode… Abroc… Abro… bolivi…           1      0          0
##  6 6       Abrocom… Rode… Abroc… Abro… budini            1      0          0
##  7 7       Abrocom… Rode… Abroc… Abro… cinerea           1      0          0
##  8 8       Abrocom… Rode… Abroc… Abro… famati…           1      0          0
##  9 9       Abrocom… Rode… Abroc… Abro… shista…           1      0          0
## 10 10      Abrocom… Rode… Abroc… Abro… uspall…           1      0          0
## # … with 5,821 more rows, and 16 more variables: aerial <dbl>,
## #   life_habit_method <chr>, life_habit_source <chr>, mass_g <dbl>,
## #   mass_method <chr>, mass_source <chr>, mass_comparison <chr>,
## #   mass_comparison_source <chr>, island_endemicity <chr>, iucn_status <chr>,
## #   added_iucn_status <chr>, diet_plant <dbl>, diet_vertebrate <dbl>,
## #   diet_invertebrate <dbl>, diet_method <chr>, diet_source <chr>
…
