Section 5 ggplot2 and the grammar of graphics | TRES Tidyverse Tutorial
…
will not show anything. A ggplot object is there, but it has no layers yet.

Plots can then be customized with statistical transformations, re-positioning, changes in coordinate system, facetting, and more. We will now go through the different elements.

5.1.3 Quick plot

Note that the qplot function, which stands for “quick plot”, will show a plot when called on your dataset. It is a wrapper around ggplot2 layers that allows to quickly get a visualization, just like using plot from base R. However, it is less flexible than combining your ggplot yourself, so here we will make sure that you understand how the different layers are assembled.

5.2 But first, the data

In this chapter we will use the data from bacterial_experiment.csv, forged by Annie for us to use. This dataset resembles Annie’s experiment where she created mutator strains of bacteria (that is, bacteria that mutate at a much higher rate than usual) and tracked their growth through time and at different concentrations of an agent supposed to activate the full “mutation potential” of those strains.

data <- read_csv("data/bacterial_experiment.csv")
data
#> # A tibble: 310 x 7
#>   strain   assay   conc ratio time         cfu OD600
#>   <chr>    <chr>  <dbl> <dbl> <chr>      <dbl> <dbl>
#> 1 strain 1 test 1     1  8.58 T0     320000000 0.319
#> 2 strain 1 test 1     1  8.58 T1    1293846908 0.911
#> 3 strain 1 test 1     1  6.11 T0     370110830 0.287
#> 4 strain 1 test 1     1  6.11 T1    1480443320 0.9  
#> 5 strain 1 test 1     1 11.8  T0     377928804 0.321
#> 6 strain 1 test 1     1 11.8  T1    1511715216 0.914
#> # … with 304 more rows

The different strains of bacteria were grown in two different assays, whose details are irrelevant for the purpose of this tutorial. cfu is the number of colony forming units while OD600 is the optical density at 600nm wavelength; both are estimates of bacterial population density. ratio represents the ratio in mutants between two time points, T0 and T1 (encoded in time).

In this table, the unit of observation is the time point (T0 and T1 are on different rows), therefore the values of ratio, which are attributed to each T0-T1 pair, are duplicated to yield one value per time point. To make our life easier with later plotting and to stay within the tidy spirit of the tidyverse (where one table should have one unit of observation), we use the tools we have already learnt to make a ratio-wise table:

data2 <- data %>%
  pivot_wider(names_from = "time", values_from = c("cfu",  "OD600"))
data2
#> # A tibble: 155 x 8
#>   strain   assay   conc ratio    cfu_T0     cfu_T1 OD600_T0 OD600_T1
#>   <chr>    <chr>  <dbl> <dbl>     <dbl>      <dbl>    <dbl>    <dbl>
#> 1 strain 1 test 1     1  8.58 320000000 1293846908    0.319    0.911
#> 2 strain 1 test 1     1  6.11 370110830 1480443320    0.287    0.9  
#> 3 strain 1 test 1     1 11.8  377928804 1511715216    0.321    0.914
#> 4 strain 1 test 1     1  7.78 369871771 1479487084    0.299    0.92 
#> 5 strain 1 test 1     5 10.5  380000000 1505539596    0.295    0.922
#> 6 strain 1 test 1     5  8.29 322488344 1289953376    0.275    0.88 
#> # … with 149 more rows
…
This means that different geoms can be based on different datasets. This allows quite some complexification of the plots and illustrates very well the usefulness of the other packages of the tidyverse. Say, for example, that we want to add to this plot a line going through the means at each value of conc. These mean values are not yet present in our dataset, and we need to come up with a mean-wise dataset. dplyr is our friend for this task:

data3 <- data2 %>%
  group_by(conc, strain) %>%
  summarize(ratio = mean(ratio))
data3
#> # A tibble: 24 x 3
#> # Groups:   conc [8]
#>    conc strain   ratio
#>   <dbl> <chr>    <dbl>
#> 1     1 control   2.21
#> 2     1 strain 1  7.09
#> 3     1 strain 2  9.16
#> 4     5 control   2.50
#> 5     5 strain 1  7.17
#> 6     5 strain 2  6.89
#> # … with 18 more rows
…
