Section 7 Programming in the tidyverse | TRES Tidyverse Tutorial
…
  data %>%
    filter(!!!parse_exprs(filters)) %>%
    group_by(!!!grouping_vars) %>%

    # important bit
    summarise_at(.vars = summary_vars,
                 .funs = summary_funs)
}

custom_summary(data,
               grouping_vars = c("order", "family"),
               summary_vars = "mass_g",
               summary_funs = list(this_is_a_mean = mean, sd))
#> # A tibble: 113 x 4
#> # Groups:   order [24]
#>   order        family      this_is_a_mean    fn1
#>   <chr>        <chr>                <dbl>  <dbl>
#> 1 Afrosoricida Tenrecidae          13220     NA 
#> 2 Carnivora    Ailuridae            4900     NA 
#> 3 Carnivora    Canidae             10502. 11618.
#> 4 Carnivora    Eupleridae           5853.  6234.
#> 5 Carnivora    Felidae             52801. 88201.
#> 6 Carnivora    Herpestidae          2334.   937.
#> # … with 107 more rows
…
