Section 2 Reshaping data tables in the tidyverse | TRES Tidyverse Tutorial
…
# Convert to tibble
as_tibble(pca_scores)
#> # A tibble: 32 x 11
#>       PC1   PC2   PC3    PC4    PC5     PC6      PC7     PC8    PC9    PC10
#>     <dbl> <dbl> <dbl>  <dbl>  <dbl>   <dbl>    <dbl>   <dbl>  <dbl>   <dbl>
#> 1  -79.6   2.13 -2.15 -2.71  -0.702 -0.315  -0.0987  -0.0779 -0.200 -0.290 
#> 2  -79.6   2.15 -2.22 -2.18  -0.884 -0.453  -0.00355 -0.0957 -0.353 -0.193 
#> 3 -134.   -5.06 -2.14  0.346  1.11   1.17    0.00576  0.136  -0.198  0.0763
#> 4    8.52 45.0   1.23  0.827  0.424 -0.0579 -0.0243   0.221   0.356 -0.0906
#> 5  129.   30.8   3.34 -0.521  0.737 -0.333   0.106   -0.0530  0.153 -0.189 
#> 6  -23.2  35.1  -3.26  1.40   0.803 -0.0884  0.239    0.424   0.101 -0.0377
#> # … with 26 more rows, and 1 more variable: PC11 <dbl>
…
# Assemble into a tibble
data <- tibble(
  id = 1:100,
  beak_length = beak_lengths, 
  beak_width = beak_widths, 
  body_weight = body_weights,
  island = islands
)

# Snapshot
data
#> # A tibble: 100 x 5
#>      id beak_length beak_width body_weight island 
#>   <int>       <dbl>      <dbl>       <dbl> <chr>  
#> 1     1        4.94       1.94       10.8  Isabela
#> 2     2        5.02       2.00       15.4  Isabela
#> 3     3        4.92       1.91       15.0  Isabela
#> 4     4        5.16       2.02        8.51 Isabela
#> 5     5        5.03       1.93       14.9  Isabela
#> 6     6        4.92       2.18        8.41 Isabela
#> # … with 94 more rows

Here, we pretend to have measured beak_length, beak_width and body_weight on 100 birds, 50 of them from Isabela and 50 of them from Santa Cruz. In this tibble, each row is an individual bird. This is probably the way most scientists would record their data in the field. However, a single bird is not an “observation” in the sense used in the tidyverse. Our dataset is not tidy but messy.

The tidy equivalent of this dataset would be:

data <- pivot_longer(
  data, 
  cols = c("beak_length", "beak_width", "body_weight"),
  names_to = "variable"
)
data
#> # A tibble: 300 x 4
#>      id island  variable    value
#>   <int> <chr>   <chr>       <dbl>
#> 1     1 Isabela beak_length  4.94
#> 2     1 Isabela beak_width   1.94
#> 3     1 Isabela body_weight 10.8 
#> 4     2 Isabela beak_length  5.02
#> 5     2 Isabela beak_width   2.00
#> 6     2 Isabela body_weight 15.4 
#> # … with 294 more rows
…
2.3 Reshaping with tidyr

The tidyr package implements tools to easily switch between layouts and also perform a few other reshaping operations. Old school R users will be familiar with the reshape and reshape2 packages, of which tidyr is the tidyverse equivalent. Beware that tidyr is about playing with the general layout of the dataset, while operations and transformations of the data are within the scope of the dplyr and purrr packages. All these packages work hand-in-hand really well, and analysis pipelines usually involve all of them. But today, we focus on the first member of this holy trinity, which is often the first one you’ll need because you will want to reshape your data before doing other things. So, please hold your non-layout-related questions for the next chapters.

2.3.1 Pivoting

Pivoting a dataset between the long and wide layout is the main purpose of tidyr (check out the package’s logo). We already saw the pivot_longer function, that converts a table form wide to long format. Similarly, there is a pivot_wider function that does exactly the opposite and takes you back to the wide format:

pivot_wider(
  data, 
  names_from = "variable", 
  values_from = "value", 
  id_cols = c("id", "island")
)
#> # A tibble: 100 x 5
#>      id island  beak_length beak_width body_weight
#>   <int> <chr>         <dbl>      <dbl>       <dbl>
#> 1     1 Isabela        4.94       1.94       10.8 
#> 2     2 Isabela        5.02       2.00       15.4 
#> 3     3 Isabela        4.92       1.91       15.0 
#> 4     4 Isabela        5.16       2.02        8.51
#> 5     5 Isabela        5.03       1.93       14.9 
#> 6     6 Isabela        4.92       2.18        8.41
#> # … with 94 more rows
The order of the columns is not exactly as it was, but this should not matter in a data analysis pipeline where you should access columns by their names. It is straightforward to change the order of the columns, but this is more within the scope of the dplyr package.

If you are familiar with earlier versions of the tidyverse, pivot_longer and pivot_wider are the respective equivalents of gather and spread, which are now deprecated.

There are a few other reshaping operations from tidyr that are worth knowing.

2.3.2 Handling missing values

Say we have some missing measurements in the column “value” of our finch dataset:

# We replace 100 random observations by NAs
ii <- sample(nrow(data), 100)
data$value[ii] <- NA
data
#> # A tibble: 300 x 4
#>      id island  variable    value
#>   <int> <chr>   <chr>       <dbl>
#> 1     1 Isabela beak_length  4.94
#> 2     1 Isabela beak_width  NA   
#> 3     1 Isabela body_weight NA   
#> 4     2 Isabela beak_length NA   
#> 5     2 Isabela beak_width   2.00
#> 6     2 Isabela body_weight NA   
#> # … with 294 more rows

We could get rid of the rows that have missing values using drop_na:

drop_na(data, value)
#> # A tibble: 200 x 4
#>      id island  variable    value
#>   <int> <chr>   <chr>       <dbl>
#> 1     1 Isabela beak_length  4.94
#> 2     2 Isabela beak_width   2.00
#> 3     3 Isabela beak_length  4.92
#> 4     3 Isabela beak_width   1.91
#> 5     4 Isabela beak_length  5.16
#> 6     4 Isabela body_weight  8.51
#> # … with 194 more rows

Else, we could replace the NAs with some user-defined value:

replace_na(data, replace = list(value = -999))
#> # A tibble: 300 x 4
#>      id island  variable      value
#>   <int> <chr>   <chr>         <dbl>
#> 1     1 Isabela beak_length    4.94
#> 2     1 Isabela beak_width  -999   
#> 3     1 Isabela body_weight -999   
#> 4     2 Isabela beak_length -999   
#> 5     2 Isabela beak_width     2.00
#> 6     2 Isabela body_weight -999   
#> # … with 294 more rows

where the replace argument takes a named list, and the names should refer to the columns to apply the replacement to.

We could also replace NAs with the most recent non-NA values:

fill(data, value)
#> # A tibble: 300 x 4
#>      id island  variable    value
#>   <int> <chr>   <chr>       <dbl>
#> 1     1 Isabela beak_length  4.94
#> 2     1 Isabela beak_width   4.94
#> 3     1 Isabela body_weight  4.94
#> 4     2 Isabela beak_length  4.94
#> 5     2 Isabela beak_width   2.00
#> 6     2 Isabela body_weight  2.00
#> # … with 294 more rows

Note that most functions in the tidyverse take a tibble as their first argument, and columns to which to apply the functions are usually passed as “objects” rather than character strings. In the above example, we passed the value column as value, not "value". These column-objects are called by the tidyverse functions in the context of the data (the tibble) they belong to.

2.3.3 Splitting and combining cells

The tidyr package offers tools to split and combine columns. This is a nice extension to the string manipulations we saw last week in the stringr tutorial.

Say we want to add the specific dates when we took measurements on our birds (we would normally do this using dplyr but for now we will stick to the old way):

# Sample random dates for each observation
data$day <- sample(30, nrow(data), replace = TRUE)
data$month <- sample(12, nrow(data), replace = TRUE)
data$year <- sample(2019:2020, nrow(data), replace = TRUE)
data
#> # A tibble: 300 x 7
#>      id island  variable    value   day month  year
#>   <int> <chr>   <chr>       <dbl> <int> <int> <int>
#> 1     1 Isabela beak_length  4.94     8     7  2020
#> 2     1 Isabela beak_width  NA       19     7  2019
#> 3     1 Isabela body_weight NA       17    12  2019
#> 4     2 Isabela beak_length NA       20    12  2020
#> 5     2 Isabela beak_width   2.00    21    10  2020
#> 6     2 Isabela body_weight NA       23     2  2020
#> # … with 294 more rows

We could combine the day, month and year columns into a single date column, with a dash as a separator, using unite:

data <- unite(data, day, month, year, col = "date", sep = "-")
data
#> # A tibble: 300 x 5
#>      id island  variable    value date      
#>   <int> <chr>   <chr>       <dbl> <chr>     
#> 1     1 Isabela beak_length  4.94 8-7-2020  
#> 2     1 Isabela beak_width  NA    19-7-2019 
#> 3     1 Isabela body_weight NA    17-12-2019
#> 4     2 Isabela beak_length NA    20-12-2020
#> 5     2 Isabela beak_width   2.00 21-10-2020
#> 6     2 Isabela body_weight NA    23-2-2020 
#> # … with 294 more rows

Of course, we can revert back to the previous dataset by splitting the date column with separate.

separate(data, date, into = c("day", "month", "year"))
#> # A tibble: 300 x 7
#>      id island  variable    value day   month year 
#>   <int> <chr>   <chr>       <dbl> <chr> <chr> <chr>
#> 1     1 Isabela beak_length  4.94 8     7     2020 
#> 2     1 Isabela beak_width  NA    19    7     2019 
#> 3     1 Isabela body_weight NA    17    12    2019 
#> 4     2 Isabela beak_length NA    20    12    2020 
#> 5     2 Isabela beak_width   2.00 21    10    2020 
#> 6     2 Isabela body_weight NA    23    2     2020 
#> # … with 294 more rows

But note that the day, month and year columns are now of class character and not integer anymore. This is because they result from the splitting of date, which itself was a character column.

You can also separate a single column into multiple rows using separate_rows:

separate_rows(data, date)
#> # A tibble: 900 x 5
#>      id island  variable    value date 
#>   <int> <chr>   <chr>       <dbl> <chr>
#> 1     1 Isabela beak_length  4.94 8    
#> 2     1 Isabela beak_length  4.94 7    
#> 3     1 Isabela beak_length  4.94 2020 
#> 4     1 Isabela beak_width  NA    19   
#> 5     1 Isabela beak_width  NA    7    
#> 6     1 Isabela beak_width  NA    2019 
#> # … with 894 more rows
…
expand(data, island, variable)
#> # A tibble: 6 x 2
#>   island     variable   
#>   <chr>      <chr>      
#> 1 Isabela    beak_length
#> 2 Isabela    beak_width 
#> 3 Isabela    body_weight
#> 4 Santa Cruz beak_length
#> 5 Santa Cruz beak_width 
#> 6 Santa Cruz body_weight

As an extension of this, the function complete can come particularly handy if we need to add missing combinations to our tibble:

complete(data, island, variable)
#> # A tibble: 300 x 5
#>   island  variable       id value date      
#>   <chr>   <chr>       <int> <dbl> <chr>     
#> 1 Isabela beak_length     1  4.94 8-7-2020  
#> 2 Isabela beak_length     2 NA    20-12-2020
#> 3 Isabela beak_length     3  4.92 20-4-2019 
#> 4 Isabela beak_length     4  5.16 5-3-2020  
#> 5 Isabela beak_length     5  5.03 1-4-2019  
#> 6 Isabela beak_length     6  4.92 2-3-2019  
#> # … with 294 more rows
…
