Section 4 Working with lists and iteration | TRES Tidyverse Tutorial
…
mtcars is now a nested data frame. The class of each of its columns is respectively, a numeric (number of cylinders) and a list (the data of all cars with as many cylinders as in the corresponding row).

While nest can be used without first grouping the tibble, it’s just much easier to group first.

4.1.2 Unnesting data

A nested tibble can be converted back into the original, or into a processed form, using tidyr::unnest. The original groups are retained.

# use unnest to recover the original data frame
unnest(nested_cars, cols = "data")
#> # A tibble: 32 x 12
#> # Groups:   cyl [3]
#>     cyl car_name       mpg  disp    hp  drat    wt  qsec    vs    am  gear  carb
#>   <dbl> <chr>        <dbl> <dbl> <dbl> <dbl> <dbl> <dbl> <dbl> <dbl> <dbl> <dbl>
#> 1     6 Mazda RX4     21    160    110  3.9   2.62  16.5     0     1     4     4
#> 2     6 Mazda RX4 W…  21    160    110  3.9   2.88  17.0     0     1     4     4
#> 3     6 Hornet 4 Dr…  21.4  258    110  3.08  3.22  19.4     1     0     3     1
#> 4     6 Valiant       18.1  225    105  2.76  3.46  20.2     1     0     3     1
#> 5     6 Merc 280      19.2  168.   123  3.92  3.44  18.3     1     0     4     4
#> 6     6 Merc 280C     17.8  168.   123  3.92  3.44  18.9     1     0     4     4
#> # … with 26 more rows
…
# from a list of lists where cars are divided by cylinders and then
# gears, this is now a list of lists where cars are divided by
# gears and then cylinders
transpose(this_list[1])
#> $`3`
#> $`3`$`4`
#> # A tibble: 1 x 12
#>   car            mpg   cyl  disp    hp  drat    wt  qsec    vs    am  gear  carb
#>   <chr>        <dbl> <dbl> <dbl> <dbl> <dbl> <dbl> <dbl> <dbl> <dbl> <dbl> <dbl>
#> 1 Toyota Coro…  21.5     4  120.    97   3.7  2.46  20.0     1     0     3     1
#> 
#> 
#> $`4`
#> $`4`$`4`
#> # A tibble: 8 x 12
#>   car            mpg   cyl  disp    hp  drat    wt  qsec    vs    am  gear  carb
#>   <chr>        <dbl> <dbl> <dbl> <dbl> <dbl> <dbl> <dbl> <dbl> <dbl> <dbl> <dbl>
#> 1 Datsun 710    22.8     4 108      93  3.85  2.32  18.6     1     1     4     1
#> 2 Merc 240D     24.4     4 147.     62  3.69  3.19  20       1     0     4     2
#> 3 Merc 230      22.8     4 141.     95  3.92  3.15  22.9     1     0     4     2
#> 4 Fiat 128      32.4     4  78.7    66  4.08  2.2   19.5     1     1     4     1
#> 5 Honda Civic   30.4     4  75.7    52  4.93  1.62  18.5     1     1     4     2
#> 6 Toyota Coro…  33.9     4  71.1    65  4.22  1.84  19.9     1     1     4     1
#> # … with 2 more rows
…
